#----------------------------#
MapReduce Execution Time (sec)
#----------------------------#

Iteration	Hadoop	Spark
1			4.344	0.091
2			5.288	0.096
3			4.271	0.083
4			5.350	0.100
5			4.418	0.086
6			4.254	0.106
7			4.409	0.083
8			4.324	0.082
9			4.326	0.080
10			5.307	0.131
