\relax 
\select@language{english}
\@writefile{toc}{\select@language{english}}
\@writefile{lof}{\select@language{english}}
\@writefile{lot}{\select@language{english}}
\@writefile{toc}{\contentsline {section}{\numberline {1}Introduction}{1}}
\@writefile{toc}{\contentsline {section}{\numberline {2}Characteristics of the virtual machines}{1}}
\@writefile{toc}{\contentsline {section}{\numberline {3}Benchmarking approach and method}{2}}
\@writefile{toc}{\contentsline {section}{\numberline {4}Benchmark applications}{2}}
\@writefile{toc}{\contentsline {subsection}{\numberline {4.1}UnixBench}{2}}
\@writefile{toc}{\contentsline {subsection}{\numberline {4.2}dd command}{2}}
\@writefile{toc}{\contentsline {subsection}{\numberline {4.3}IOping}{3}}
\@writefile{toc}{\contentsline {subsection}{\numberline {4.4}Redis}{3}}
\@writefile{toc}{\contentsline {subsection}{\numberline {4.5}Dbench}{3}}
\@writefile{toc}{\contentsline {subsection}{\numberline {4.6}Sysbench}{4}}
\@writefile{toc}{\contentsline {subsection}{\numberline {4.7}hdparm}{4}}
\@writefile{toc}{\contentsline {section}{\numberline {5}Benchmarking issues}{4}}
\@writefile{toc}{\contentsline {section}{\numberline {6}Benchmarking results}{4}}
\@writefile{toc}{\contentsline {subsection}{\numberline {6.1}Unixbench}{4}}
\@writefile{toc}{\contentsline {subsection}{\numberline {6.2}dd command}{4}}
\@writefile{toc}{\contentsline {subsection}{\numberline {6.3}IOping}{4}}
\@writefile{toc}{\contentsline {subsection}{\numberline {6.4}Redis}{4}}
\@writefile{toc}{\contentsline {subsection}{\numberline {6.5}Dbench}{4}}
\@writefile{toc}{\contentsline {subsection}{\numberline {6.6}Sysbench}{4}}
\@writefile{toc}{\contentsline {subsection}{\numberline {6.7}hdparm}{4}}
\@writefile{toc}{\contentsline {section}{\numberline {7}Application analysis}{4}}
