\relax 
\select@language{english}
\@writefile{toc}{\select@language{english}}
\@writefile{lof}{\select@language{english}}
\@writefile{lot}{\select@language{english}}
\@writefile{toc}{\contentsline {section}{\numberline {1}Introduction}{1}}
\@writefile{toc}{\contentsline {section}{\numberline {2}MySQL}{1}}
\@writefile{toc}{\contentsline {section}{\numberline {3}Gatekeeper Pattern}{2}}
\@writefile{toc}{\contentsline {section}{\numberline {4}Competing Consumers Pattern}{2}}
\@writefile{toc}{\contentsline {section}{\numberline {5}Multi-Threaded Application Scenarios}{2}}
\@writefile{lof}{\contentsline {figure}{\numberline {1}{\ignorespaces Application Scenario\relax }}{3}}
\providecommand*\caption@xref[2]{\@setref\relax\@undefined{#1}}
\newlabel{fig:AS}{{1}{3}}
\@writefile{toc}{\contentsline {section}{\numberline {6}Approach - Results - Discussion}{3}}
\@writefile{toc}{\contentsline {subsection}{\numberline {6.1}MySQL and MySQL Cluster}{3}}
\@writefile{toc}{\contentsline {subsubsection}{\numberline {6.1.1}Approach}{3}}
\@writefile{toc}{\contentsline {subsubsection}{\numberline {6.1.2}Results}{3}}
\@writefile{toc}{\contentsline {subsubsection}{\numberline {6.1.3}Discussion}{3}}
\@writefile{toc}{\contentsline {subsection}{\numberline {6.2}Gatekeeper and Competing Consumers - Performance}{3}}
\@writefile{toc}{\contentsline {subsubsection}{\numberline {6.2.1}Approach}{3}}
\@writefile{toc}{\contentsline {subsubsection}{\numberline {6.2.2}Results}{3}}
\@writefile{toc}{\contentsline {subsubsection}{\numberline {6.2.3}Discussion}{3}}
\@writefile{toc}{\contentsline {subsection}{\numberline {6.3}Gatekeeper and Competing Consumers - Energy Consumption}{3}}
\@writefile{toc}{\contentsline {subsubsection}{\numberline {6.3.1}Approach}{3}}
\@writefile{toc}{\contentsline {subsubsection}{\numberline {6.3.2}Results}{3}}
\@writefile{toc}{\contentsline {subsubsection}{\numberline {6.3.3}Discussion}{3}}
\@writefile{toc}{\contentsline {section}{\numberline {7}Conclusion}{3}}
