\relax 
\select@language{english}
\@writefile{toc}{\select@language{english}}
\@writefile{lof}{\select@language{english}}
\@writefile{lot}{\select@language{english}}
\@writefile{toc}{\contentsline {section}{\numberline {1}Introduction}{1}}
\@writefile{toc}{\contentsline {section}{\numberline {2}MySQL}{1}}
\@writefile{toc}{\contentsline {section}{\numberline {3}Gatekeeper Pattern}{2}}
\@writefile{toc}{\contentsline {subsection}{\numberline {3.1}Securing Gatekeeper and Trusted Host}{2}}
\@writefile{lof}{\contentsline {figure}{\numberline {1}{\ignorespaces Network Interface\relax }}{3}}
\providecommand*\caption@xref[2]{\@setref\relax\@undefined{#1}}
\newlabel{fig:NI}{{1}{3}}
\@writefile{lof}{\contentsline {figure}{\numberline {2}{\ignorespaces Trusted Host Security\relax }}{3}}
\newlabel{fig:THS}{{2}{3}}
\@writefile{toc}{\contentsline {section}{\numberline {4}Competing Consumers Pattern}{3}}
\@writefile{lof}{\contentsline {figure}{\numberline {3}{\ignorespaces Implementation\relax }}{4}}
\newlabel{fig:GK}{{3}{4}}
\@writefile{toc}{\contentsline {section}{\numberline {5}Multi-Threaded Application Scenarios}{4}}
\@writefile{lof}{\contentsline {figure}{\numberline {4}{\ignorespaces Application Scenario\relax }}{5}}
\newlabel{fig:AS}{{4}{5}}
\@writefile{toc}{\contentsline {section}{\numberline {6}Approach - Results - Discussion}{5}}
\@writefile{toc}{\contentsline {subsection}{\numberline {6.1}MySQL and MySQL Cluster}{5}}
\@writefile{toc}{\contentsline {subsubsection}{\numberline {6.1.1}Approach}{6}}
\@writefile{lof}{\contentsline {figure}{\numberline {5}{\ignorespaces MySql Cluster Memory Usage\relax }}{7}}
\newlabel{fig:MemoryUsage}{{5}{7}}
\newlabel{fig:MySQLSysbench}{{6a}{8}}
\newlabel{sub@fig:MySQLSysbench}{{a}{8}}
\newlabel{fig:MySQLClusterSysbench}{{6b}{8}}
\newlabel{sub@fig:MySQLClusterSysbench}{{b}{8}}
\@writefile{lof}{\contentsline {figure}{\numberline {6}{\ignorespaces Sysbench Benchmarks\relax }}{8}}
\newlabel{fig:test}{{6}{8}}
\@writefile{toc}{\contentsline {subsubsection}{\numberline {6.1.2}Results}{9}}
\@writefile{toc}{\contentsline {subsubsection}{\numberline {6.1.3}Discussion}{9}}
\@writefile{lof}{\contentsline {figure}{\numberline {7}{\ignorespaces Sysbench Test Table's Structure\relax }}{9}}
\newlabel{fig:SysbenchTestTable}{{7}{9}}
\@writefile{toc}{\contentsline {subsection}{\numberline {6.2}Gatekeeper and Competing Consumers - Performance}{9}}
\@writefile{toc}{\contentsline {subsubsection}{\numberline {6.2.1}Approach}{10}}
\@writefile{toc}{\contentsline {subsubsection}{\numberline {6.2.2}Results}{10}}
\@writefile{toc}{\contentsline {subsubsection}{\numberline {6.2.3}Discussion}{10}}
\@writefile{toc}{\contentsline {subsection}{\numberline {6.3}Gatekeeper and Competing Consumers - Energy Consumption}{10}}
\@writefile{toc}{\contentsline {subsubsection}{\numberline {6.3.1}Approach}{10}}
\@writefile{toc}{\contentsline {subsubsection}{\numberline {6.3.2}Results}{10}}
\@writefile{toc}{\contentsline {subsubsection}{\numberline {6.3.3}Discussion}{10}}
\@writefile{toc}{\contentsline {section}{\numberline {7}Conclusion}{10}}
